PCBNEW-LibModule-V1  2021-06-03 23:28:56
# encoding utf-8
Units mm
$INDEX
LFPAK
$EndINDEX
$MODULE LFPAK
Po 0 0 0 15 60b957a8 00000000 ~~
Li LFPAK
Cd LFPAK
Kw Transistor
Sc 0
At SMD
AR 
Op 0 0 0
T0 -0.30009 2.04777 1.27 1.27 0 0.254 N V 21 N "Q**"
T1 -0.30009 2.04777 1.27 1.27 0 0.254 N I 21 N "LFPAK"
DS -2.45 0 2.45 0 0.254 24
DS 2.45 0 2.45 3.95 0.254 24
DS 2.45 3.95 -2.45 3.95 0.254 24
DS -2.45 3.95 -2.45 0 0.254 24
DS -2.45 0 -2.45 3.95 0.254 21
DS -2.45 3.95 2.45 3.95 0.254 21
DS 2.45 3.95 2.45 0 0.254 21
DC -1.896 6.271 -1.962 6.271 0.254 21
$PAD
Po -1.905 5
Sh "1" R 0.78 1.52 0 0 0
At SMD N 00888000
Ne 0 ""
$EndPAD
$PAD
Po -0.635 5
Sh "2" R 0.78 1.52 0 0 0
At SMD N 00888000
Ne 0 ""
$EndPAD
$PAD
Po 0.635 5
Sh "3" R 0.78 1.52 0 0 0
At SMD N 00888000
Ne 0 ""
$EndPAD
$PAD
Po 1.905 5
Sh "4" R 0.78 1.52 0 0 0
At SMD N 00888000
Ne 0 ""
$EndPAD
$PAD
Po 0 1.24
Sh "5" R 4.57 5.04 0 0 0
At SMD N 00888000
Ne 0 ""
$EndPAD
$EndMODULE LFPAK
$EndLIBRARY
