PCBNEW-LibModule-V1  2021-06-03 23:28:21
# encoding utf-8
Units mm
$INDEX
RJK0305DPB02J0
$EndINDEX
$MODULE RJK0305DPB02J0
Po 0 0 0 15 60b95785 00000000 ~~
Li RJK0305DPB02J0
Cd RJK0305DPB-02#J0-1
Kw MOSFET (N-Channel)
Sc 0
At SMD
AR 
Op 0 0 0
T0 0.000 0.165 1.27 1.27 0 0.254 N V 21 N "Q**"
T1 0.000 0.165 1.27 1.27 0 0.254 N I 21 N "RJK0305DPB02J0"
DS -2.55 -1.975 2.55 -1.975 0.2 24
DS 2.55 -1.975 2.55 1.975 0.2 24
DS 2.55 1.975 -2.55 1.975 0.2 24
DS -2.55 1.975 -2.55 -1.975 0.2 24
DS -3.55 -4.52 3.55 -4.52 0.1 24
DS 3.55 -4.52 3.55 4.85 0.1 24
DS 3.55 4.85 -3.55 4.85 0.1 24
DS -3.55 4.85 -3.55 -4.52 0.1 24
DS -2 3.8 -2 3.8 0.1 21
DS -1.9 3.8 -1.9 3.8 0.1 21
DS -2.55 -1.8 -2.55 1.8 0.1 21
DS 2.55 -1.8 2.55 1.8 0.1 21
DA -1.95 3.8 -2.000 3.8 -1800 0.1 21
DA -1.95 3.8 -1.900 3.8 -1800 0.1 21
$PAD
Po -1.905 2.76
Sh "1" R 0.780 1.520 0 0 0
At SMD N 00888000
Ne 0 ""
$EndPAD
$PAD
Po -0.635 2.76
Sh "2" R 0.780 1.520 0 0 0
At SMD N 00888000
Ne 0 ""
$EndPAD
$PAD
Po 0.635 2.76
Sh "3" R 0.780 1.520 0 0 0
At SMD N 00888000
Ne 0 ""
$EndPAD
$PAD
Po 1.905 2.76
Sh "4" R 0.780 1.520 0 0 0
At SMD N 00888000
Ne 0 ""
$EndPAD
$PAD
Po 0.000 -2.76
Sh "5" R 1.520 4.570 0 0 900
At SMD N 00888000
Ne 0 ""
$EndPAD
$PAD
Po 0.000 -0
Sh "6" R 3.040 4.570 0 0 900
At SMD N 00888000
Ne 0 ""
$EndPAD
$EndMODULE RJK0305DPB02J0
$EndLIBRARY
