(module "RJK0305DPB02J0" (layer F.Cu)
  (descr "RJK0305DPB-02#J0-1")
  (tags "MOSFET (N-Channel)")
  (attr smd)
  (fp_text reference Q** (at 0.000 0.165) (layer F.SilkS)
    (effects (font (size 1.27 1.27) (thickness 0.254)))
  )
  (fp_text user %R (at 0.000 0.165) (layer F.Fab)
    (effects (font (size 1.27 1.27) (thickness 0.254)))
  )
  (fp_text value "RJK0305DPB02J0" (at 0.000 0.165) (layer F.SilkS) hide
    (effects (font (size 1.27 1.27) (thickness 0.254)))
  )
  (fp_line (start -2.55 -1.975) (end 2.55 -1.975) (layer F.Fab) (width 0.2))
  (fp_line (start 2.55 -1.975) (end 2.55 1.975) (layer F.Fab) (width 0.2))
  (fp_line (start 2.55 1.975) (end -2.55 1.975) (layer F.Fab) (width 0.2))
  (fp_line (start -2.55 1.975) (end -2.55 -1.975) (layer F.Fab) (width 0.2))
  (fp_line (start -3.55 -4.52) (end 3.55 -4.52) (layer F.CrtYd) (width 0.1))
  (fp_line (start 3.55 -4.52) (end 3.55 4.85) (layer F.CrtYd) (width 0.1))
  (fp_line (start 3.55 4.85) (end -3.55 4.85) (layer F.CrtYd) (width 0.1))
  (fp_line (start -3.55 4.85) (end -3.55 -4.52) (layer F.CrtYd) (width 0.1))
  (fp_line (start -2 3.8) (end -2 3.8) (layer F.SilkS) (width 0.1))
  (fp_line (start -1.9 3.8) (end -1.9 3.8) (layer F.SilkS) (width 0.1))
  (fp_line (start -2.55 -1.8) (end -2.55 1.8) (layer F.SilkS) (width 0.1))
  (fp_line (start 2.55 -1.8) (end 2.55 1.8) (layer F.SilkS) (width 0.1))
  (fp_arc (start -1.95 3.8) (end -2.000 3.8) (angle -180) (layer F.SilkS) (width 0.1))
  (fp_arc (start -1.95 3.8) (end -1.900 3.8) (angle -180) (layer F.SilkS) (width 0.1))
  (pad 1 smd rect (at -1.905 2.76 0) (size 0.780 1.520) (layers F.Cu F.Paste F.Mask))
  (pad 2 smd rect (at -0.635 2.76 0) (size 0.780 1.520) (layers F.Cu F.Paste F.Mask))
  (pad 3 smd rect (at 0.635 2.76 0) (size 0.780 1.520) (layers F.Cu F.Paste F.Mask))
  (pad 4 smd rect (at 1.905 2.76 0) (size 0.780 1.520) (layers F.Cu F.Paste F.Mask))
  (pad 5 smd rect (at 0.000 -2.76 90) (size 1.520 4.570) (layers F.Cu F.Paste F.Mask))
  (pad 6 smd rect (at 0.000 -0 90) (size 3.040 4.570) (layers F.Cu F.Paste F.Mask))
)
