EESchema Schematic File Version 4
EELAYER 30 0
EELAYER END
$Descr A4 11693 8268
encoding utf-8
Sheet 1 1
Title ""
Date ""
Rev ""
Comp ""
Comment1 ""
Comment2 ""
Comment3 ""
Comment4 ""
$EndDescr
$Comp
L Device:R_Small_US R1
U 1 1 60B8F858
P 3000 2650
F 0 "R1" H 3068 2696 50  0000 L CNN
F 1 "1K" H 3068 2605 50  0000 L CNN
F 2 "" H 3000 2650 50  0001 C CNN
F 3 "~" H 3000 2650 50  0001 C CNN
	1    3000 2650
	1    0    0    -1  
$EndComp
$Comp
L Device:R_Small_US R2
U 1 1 60B905A0
P 3000 3150
F 0 "R2" H 3068 3196 50  0000 L CNN
F 1 "1K" H 3068 3105 50  0000 L CNN
F 2 "" H 3000 3150 50  0001 C CNN
F 3 "~" H 3000 3150 50  0001 C CNN
	1    3000 3150
	1    0    0    -1  
$EndComp
$Comp
L Device:R_Small_US R3
U 1 1 60B918B3
P 3000 3700
F 0 "R3" H 3068 3746 50  0000 L CNN
F 1 "1K" H 3068 3655 50  0000 L CNN
F 2 "" H 3000 3700 50  0001 C CNN
F 3 "~" H 3000 3700 50  0001 C CNN
	1    3000 3700
	1    0    0    -1  
$EndComp
$Comp
L Device:R_Small_US R4
U 1 1 60B91EE6
P 3000 4300
F 0 "R4" H 3068 4346 50  0000 L CNN
F 1 "1K" H 3068 4255 50  0000 L CNN
F 2 "" H 3000 4300 50  0001 C CNN
F 3 "~" H 3000 4300 50  0001 C CNN
	1    3000 4300
	1    0    0    -1  
$EndComp
$Comp
L Device:D_Zener D1
U 1 1 60B92C73
P 1750 3950
F 0 "D1" V 1704 4030 50  0000 L CNN
F 1 "5.1" V 1795 4030 50  0000 L CNN
F 2 "" H 1750 3950 50  0001 C CNN
F 3 "~" H 1750 3950 50  0001 C CNN
	1    1750 3950
	0    1    1    0   
$EndComp
$Comp
L Device:R_Small_US RZ
U 1 1 60B940CB
P 1750 2200
F 0 "RZ" H 1818 2246 50  0000 L CNN
F 1 "2.6K" H 1818 2155 50  0000 L CNN
F 2 "" H 1750 2200 50  0001 C CNN
F 3 "~" H 1750 2200 50  0001 C CNN
	1    1750 2200
	1    0    0    -1  
$EndComp
$Comp
L Device:R_Small_US R5
U 1 1 60B94830
P 4000 2450
F 0 "R5" H 4068 2496 50  0000 L CNN
F 1 "3K" H 4068 2405 50  0000 L CNN
F 2 "" H 4000 2450 50  0001 C CNN
F 3 "~" H 4000 2450 50  0001 C CNN
	1    4000 2450
	1    0    0    -1  
$EndComp
$Comp
L power:GND #PWR?
U 1 1 60B95F1C
P 2400 4950
F 0 "#PWR?" H 2400 4700 50  0001 C CNN
F 1 "GND" H 2405 4777 50  0000 C CNN
F 2 "" H 2400 4950 50  0001 C CNN
F 3 "" H 2400 4950 50  0001 C CNN
	1    2400 4950
	1    0    0    -1  
$EndComp
$Comp
L Device:R_Small_US R6
U 1 1 60B96544
P 4000 5950
F 0 "R6" H 4068 5996 50  0000 L CNN
F 1 "1K" H 4068 5905 50  0000 L CNN
F 2 "" H 4000 5950 50  0001 C CNN
F 3 "~" H 4000 5950 50  0001 C CNN
	1    4000 5950
	1    0    0    -1  
$EndComp
Wire Wire Line
	1750 4100 1750 4750
Wire Wire Line
	1750 4750 2400 4750
Wire Wire Line
	2400 4750 2400 4950
Wire Wire Line
	3000 4400 3000 4750
Wire Wire Line
	3000 4750 2400 4750
Connection ~ 2400 4750
Wire Wire Line
	1750 2100 1750 1650
Wire Wire Line
	1750 1650 4000 1650
Wire Wire Line
	4000 1650 4000 2350
Wire Wire Line
	1750 1650 1750 1100
Connection ~ 1750 1650
Text GLabel 1750 1100 0    50   Input ~ 10
Vin
$Comp
L Simulation_SPICE:OPAMP U1
U 1 1 60B9DE03
P 6750 2000
F 0 "U1" H 7094 2046 50  0000 L CNN
F 1 "OPAMP" H 7094 1955 50  0000 L CNN
F 2 "" H 6750 2000 50  0001 C CNN
F 3 "~" H 6750 2000 50  0001 C CNN
F 4 "Y" H 6750 2000 50  0001 L CNN "Spice_Netlist_Enabled"
F 5 "X" H 6750 2000 50  0001 L CNN "Spice_Primitive"
	1    6750 2000
	1    0    0    -1  
$EndComp
$Comp
L Simulation_SPICE:OPAMP U2
U 1 1 60B9EFE3
P 6850 3050
F 0 "U2" H 7194 3096 50  0000 L CNN
F 1 "OPAMP" H 7194 3005 50  0000 L CNN
F 2 "" H 6850 3050 50  0001 C CNN
F 3 "~" H 6850 3050 50  0001 C CNN
F 4 "Y" H 6850 3050 50  0001 L CNN "Spice_Netlist_Enabled"
F 5 "X" H 6850 3050 50  0001 L CNN "Spice_Primitive"
	1    6850 3050
	1    0    0    -1  
$EndComp
$Comp
L Simulation_SPICE:OPAMP U3
U 1 1 60B9FCC8
P 6900 4000
F 0 "U3" H 7244 4046 50  0000 L CNN
F 1 "OPAMP" H 7244 3955 50  0000 L CNN
F 2 "" H 6900 4000 50  0001 C CNN
F 3 "~" H 6900 4000 50  0001 C CNN
F 4 "Y" H 6900 4000 50  0001 L CNN "Spice_Netlist_Enabled"
F 5 "X" H 6900 4000 50  0001 L CNN "Spice_Primitive"
	1    6900 4000
	1    0    0    -1  
$EndComp
$Comp
L Simulation_SPICE:OPAMP U4
U 1 1 60BA0E82
P 7300 5750
F 0 "U4" H 7644 5796 50  0000 L CNN
F 1 "OPAMP" H 7644 5705 50  0000 L CNN
F 2 "" H 7300 5750 50  0001 C CNN
F 3 "~" H 7300 5750 50  0001 C CNN
F 4 "Y" H 7300 5750 50  0001 L CNN "Spice_Netlist_Enabled"
F 5 "X" H 7300 5750 50  0001 L CNN "Spice_Primitive"
	1    7300 5750
	1    0    0    -1  
$EndComp
Wire Wire Line
	3000 3250 3000 3350
Wire Wire Line
	3000 2750 3000 2950
Wire Wire Line
	6550 2950 3000 2950
Connection ~ 3000 2950
Wire Wire Line
	3000 2950 3000 3050
Wire Wire Line
	1750 2300 1750 2400
Wire Wire Line
	3000 2550 3000 2400
Wire Wire Line
	3000 2400 1750 2400
Connection ~ 1750 2400
Wire Wire Line
	1750 2400 1750 3800
Connection ~ 3000 2400
Wire Wire Line
	4500 3900 4500 3350
Wire Wire Line
	4500 3350 3000 3350
Connection ~ 3000 3350
Wire Wire Line
	3000 3350 3000 3600
Wire Wire Line
	7000 5650 7000 5350
Wire Wire Line
	7000 5350 5450 5350
Wire Wire Line
	4000 6050 4000 6400
Wire Wire Line
	3000 3800 3000 4050
Wire Wire Line
	7000 5850 5000 5850
Wire Wire Line
	5000 5850 5000 5700
Wire Wire Line
	5000 5700 4000 5700
Connection ~ 4000 5700
Wire Wire Line
	4000 5700 4000 5850
Wire Wire Line
	4000 4100 6600 4100
Connection ~ 4000 4100
Wire Wire Line
	4000 4100 4000 5700
Wire Wire Line
	5450 4900 3600 4900
Wire Wire Line
	3600 4900 3600 4050
Wire Wire Line
	3600 4050 3000 4050
Wire Wire Line
	5450 5350 5450 4900
Connection ~ 3000 4050
Wire Wire Line
	3000 4050 3000 4200
Connection ~ 4000 3150
Wire Wire Line
	4000 3150 4000 4100
Wire Wire Line
	6550 3150 4000 3150
Wire Wire Line
	4500 3900 6600 3900
Wire Wire Line
	5550 2100 5550 2750
Wire Wire Line
	5550 2750 4000 2750
Wire Wire Line
	5550 2100 6450 2100
Connection ~ 6450 2100
Wire Wire Line
	6450 2100 6500 2100
Connection ~ 4000 2750
Wire Wire Line
	4000 2750 4000 3150
Wire Wire Line
	4000 2550 4000 2750
Wire Wire Line
	3000 1900 6450 1900
Wire Wire Line
	3000 1900 3000 2400
$Comp
L power:GND #PWR?
U 1 1 60BDF275
P 4000 6400
F 0 "#PWR?" H 4000 6150 50  0001 C CNN
F 1 "GND" H 4005 6227 50  0000 C CNN
F 2 "" H 4000 6400 50  0001 C CNN
F 3 "" H 4000 6400 50  0001 C CNN
	1    4000 6400
	1    0    0    -1  
$EndComp
$Comp
L power:GND #PWR?
U 1 1 60BDF784
P 7200 6050
F 0 "#PWR?" H 7200 5800 50  0001 C CNN
F 1 "GND" H 7205 5877 50  0000 C CNN
F 2 "" H 7200 6050 50  0001 C CNN
F 3 "" H 7200 6050 50  0001 C CNN
	1    7200 6050
	1    0    0    -1  
$EndComp
$Comp
L power:GND #PWR?
U 1 1 60BDFCA9
P 6800 4300
F 0 "#PWR?" H 6800 4050 50  0001 C CNN
F 1 "GND" H 6805 4127 50  0000 C CNN
F 2 "" H 6800 4300 50  0001 C CNN
F 3 "" H 6800 4300 50  0001 C CNN
	1    6800 4300
	1    0    0    -1  
$EndComp
$Comp
L power:GND #PWR?
U 1 1 60BE00A4
P 6750 3350
F 0 "#PWR?" H 6750 3100 50  0001 C CNN
F 1 "GND" H 6755 3177 50  0000 C CNN
F 2 "" H 6750 3350 50  0001 C CNN
F 3 "" H 6750 3350 50  0001 C CNN
	1    6750 3350
	1    0    0    -1  
$EndComp
$Comp
L power:GND #PWR?
U 1 1 60BE0906
P 6650 2300
F 0 "#PWR?" H 6650 2050 50  0001 C CNN
F 1 "GND" H 6655 2127 50  0000 C CNN
F 2 "" H 6650 2300 50  0001 C CNN
F 3 "" H 6650 2300 50  0001 C CNN
	1    6650 2300
	1    0    0    -1  
$EndComp
$Comp
L Device:Battery_Cell BT
U 1 1 60BE3752
P 9150 5400
F 0 "BT" H 9268 5496 50  0000 L CNN
F 1 "3.3V" H 9268 5405 50  0000 L CNN
F 2 "" V 9150 5460 50  0001 C CNN
F 3 "~" V 9150 5460 50  0001 C CNN
	1    9150 5400
	1    0    0    -1  
$EndComp
$Comp
L power:GND #PWR?
U 1 1 60BE7E2F
P 9150 5800
F 0 "#PWR?" H 9150 5550 50  0001 C CNN
F 1 "GND" H 9155 5627 50  0000 C CNN
F 2 "" H 9150 5800 50  0001 C CNN
F 3 "" H 9150 5800 50  0001 C CNN
	1    9150 5800
	1    0    0    -1  
$EndComp
Wire Wire Line
	9150 5200 9150 4800
Wire Wire Line
	9150 1300 6650 1300
Wire Wire Line
	6650 1300 6650 1700
Wire Wire Line
	6750 2750 9150 2750
Connection ~ 9150 2750
Wire Wire Line
	9150 2750 9150 1300
Wire Wire Line
	9150 3500 7050 3500
Wire Wire Line
	7050 3500 7050 3700
Wire Wire Line
	7050 3700 6800 3700
Connection ~ 9150 3500
Wire Wire Line
	9150 3500 9150 2750
Wire Wire Line
	7200 5450 7200 4800
Wire Wire Line
	7200 4800 9150 4800
Connection ~ 9150 4800
Wire Wire Line
	9150 4800 9150 3500
Wire Wire Line
	9150 5500 9150 5800
Wire Wire Line
	7050 2000 7650 2000
Wire Wire Line
	7150 3050 7750 3050
Wire Wire Line
	7200 4000 7850 4000
Wire Wire Line
	7600 5750 8200 5750
Wire Wire Line
	8200 5750 8200 5700
Text Notes 8100 7650 0    50   ~ 10
03-june-2021
Text Notes 7350 7500 0    50   ~ 10
UPS SUBSYSTEM
Text GLabel 7850 4000 2    50   Input ~ 0
Vout3
Text GLabel 7750 3050 2    50   Output ~ 0
Vout3
Text GLabel 7650 2000 2    50   Output ~ 0
Vout3
Text GLabel 8200 5700 2    50   Output ~ 0
Vout4
$EndSCHEMATC
