PCBNEW-LibModule-V1  2021-06-03 22:04:12
# encoding utf-8
Units mm
$INDEX
SOP65P490X110-13N
$EndINDEX
$MODULE SOP65P490X110-13N
Po 0 0 0 15 60b943cc 00000000 ~~
Li SOP65P490X110-13N
Cd MSE Package 12-Lead Plastic MSOP, Exposed Die Pad
Kw Integrated Circuit
Sc 0
At SMD
AR 
Op 0 0 0
T0 0 0 1.27 1.27 0 0.254 N V 21 N "IC**"
T1 0 0 1.27 1.27 0 0.254 N I 21 N "SOP65P490X110-13N"
DS -3.175 -2.32 3.175 -2.32 0.05 24
DS 3.175 -2.32 3.175 2.32 0.05 24
DS 3.175 2.32 -3.175 2.32 0.05 24
DS -3.175 2.32 -3.175 -2.32 0.05 24
DS -1.5 -2.02 1.5 -2.02 0.1 24
DS 1.5 -2.02 1.5 2.02 0.1 24
DS 1.5 2.02 -1.5 2.02 0.1 24
DS -1.5 2.02 -1.5 -2.02 0.1 24
DS -1.5 -1.37 -0.85 -2.02 0.1 24
DS -2.925 -2.2 -1.5 -2.2 0.2 21
$PAD
Po -2.212 -1.625
Sh "1" R 0.45 1.425 0 0 900
At SMD N 00888000
Ne 0 ""
$EndPAD
$PAD
Po -2.212 -0.975
Sh "2" R 0.45 1.425 0 0 900
At SMD N 00888000
Ne 0 ""
$EndPAD
$PAD
Po -2.212 -0.325
Sh "3" R 0.45 1.425 0 0 900
At SMD N 00888000
Ne 0 ""
$EndPAD
$PAD
Po -2.212 0.325
Sh "4" R 0.45 1.425 0 0 900
At SMD N 00888000
Ne 0 ""
$EndPAD
$PAD
Po -2.212 0.975
Sh "5" R 0.45 1.425 0 0 900
At SMD N 00888000
Ne 0 ""
$EndPAD
$PAD
Po -2.212 1.625
Sh "6" R 0.45 1.425 0 0 900
At SMD N 00888000
Ne 0 ""
$EndPAD
$PAD
Po 2.212 1.625
Sh "7" R 0.45 1.425 0 0 900
At SMD N 00888000
Ne 0 ""
$EndPAD
$PAD
Po 2.212 0.975
Sh "8" R 0.45 1.425 0 0 900
At SMD N 00888000
Ne 0 ""
$EndPAD
$PAD
Po 2.212 0.325
Sh "9" R 0.45 1.425 0 0 900
At SMD N 00888000
Ne 0 ""
$EndPAD
$PAD
Po 2.212 -0.325
Sh "10" R 0.45 1.425 0 0 900
At SMD N 00888000
Ne 0 ""
$EndPAD
$PAD
Po 2.212 -0.975
Sh "11" R 0.45 1.425 0 0 900
At SMD N 00888000
Ne 0 ""
$EndPAD
$PAD
Po 2.212 -1.625
Sh "12" R 0.45 1.425 0 0 900
At SMD N 00888000
Ne 0 ""
$EndPAD
$PAD
Po 0 0
Sh "13" R 1.753 2.947 0 0 0
At SMD N 00888000
Ne 0 ""
$EndPAD
$EndMODULE SOP65P490X110-13N
$EndLIBRARY
