EESchema Schematic File Version 4
EELAYER 30 0
EELAYER END
$Descr A4 11693 8268
encoding utf-8
Sheet 1 4
Title "Raspberry Pi Zero (W) uHAT Template Board"
Date "2019-02-28"
Rev "1.0"
Comp ""
Comment1 "This Schematic is licensed under MIT Open Source License."
Comment2 ""
Comment3 ""
Comment4 ""
$EndDescr
$Comp
L Connector_Generic:Conn_02x20_Odd_Even J2
U 1 1 5C77771F
P 5100 2750
F 0 "J2" H 5150 3867 50  0000 C CNN
F 1 "GPIO_CONNECTOR" H 5150 3776 50  0000 C CNN
F 2 "lib:PinSocket_2x20_P2.54mm_Vertical_Centered_Anchor" H 5100 2750 50  0001 C CNN
F 3 "~" H 5100 2750 50  0001 C CNN
	1    5100 2750
	1    0    0    -1  
$EndComp
Wire Wire Line
	4900 2250 4700 2250
Wire Wire Line
	4900 2650 4650 2650
Connection ~ 4650 1850
Wire Wire Line
	5400 1850 5700 1850
Wire Wire Line
	5400 1950 5700 1950
Wire Wire Line
	5700 1950 5700 1850
Connection ~ 5700 1850
$Comp
L power:PWR_FLAG #FLG01
U 1 1 5C778511
P 4300 3950
F 0 "#FLG01" H 4300 4025 50  0001 C CNN
F 1 "PWR_FLAG" H 4300 4124 50  0000 C CNN
F 2 "" H 4300 3950 50  0001 C CNN
F 3 "~" H 4300 3950 50  0001 C CNN
	1    4300 3950
	1    0    0    -1  
$EndComp
Wire Wire Line
	4300 3950 4300 4000
Text Notes 6250 1950 0    50   ~ 10
If back powering Pi with 5V \nNOTE that the Raspberry Pi 3B+ and Pi Zero \nand ZeroW do not include an input ZVD.
Wire Notes Line
	6200 1650 6200 2000
Wire Notes Line
	6200 2000 8050 2000
Wire Notes Line
	8050 2000 8050 1650
Wire Notes Line
	8050 1650 6200 1650
Wire Wire Line
	4650 1850 4900 1850
Wire Wire Line
	4250 1850 4250 1750
Wire Wire Line
	4250 1850 4650 1850
Wire Wire Line
	5700 1850 6050 1850
Text Label 3950 1950 0    50   ~ 0
GPIO2_SDA1
Text Label 3950 2050 0    50   ~ 0
GPIO3_SCL1
Text Label 3950 2150 0    50   ~ 0
GPIO4_GPIO_GCLK
Text Label 3950 2350 0    50   ~ 0
GPIO17_GEN0
Text Label 3950 2450 0    50   ~ 0
GPIO27_GEN2
Text Label 3950 2550 0    50   ~ 0
GPIO22_GEN3
Text Label 3950 2750 0    50   ~ 0
GPIO10_SPI_MOSI
Wire Wire Line
	3850 2750 4900 2750
Wire Wire Line
	3850 2850 4900 2850
Wire Wire Line
	3850 2950 4900 2950
Wire Wire Line
	3850 3150 4900 3150
Wire Wire Line
	3850 3250 4900 3250
Wire Wire Line
	3850 3450 4900 3450
Wire Wire Line
	3850 2550 4900 2550
Wire Wire Line
	3850 2450 4900 2450
Text Label 3950 2850 0    50   ~ 0
GPIO9_SPI_MISO
Text Label 3950 2950 0    50   ~ 0
GPIO11_SPI_SCLK
Text Label 3950 3150 0    50   ~ 0
ID_SD
Text Label 3950 3250 0    50   ~ 0
GPIO5
Text Label 3950 3350 0    50   ~ 0
GPIO6
Text Label 3950 3450 0    50   ~ 0
GPIO13
Text Label 3950 3550 0    50   ~ 0
GPIO19
Text Label 3950 3650 0    50   ~ 0
GPIO26
NoConn ~ 3850 2450
NoConn ~ 3850 2550
NoConn ~ 3850 2750
NoConn ~ 3850 2850
NoConn ~ 3850 2950
NoConn ~ 3850 3150
NoConn ~ 3850 3250
Text Label 5750 2150 0    50   ~ 0
GPIO14_TXD0
Text Label 5750 2250 0    50   ~ 0
GPIO15_RXD0
Text Label 5750 2350 0    50   ~ 0
GPIO18_GEN1
Text Label 5750 2550 0    50   ~ 0
GPIO23_GEN4
Text Label 5750 2650 0    50   ~ 0
GPIO24_GEN5
Text Label 5750 2850 0    50   ~ 0
GPIO25_GEN6
Text Label 5750 2950 0    50   ~ 0
GPIO8_SPI_CE0_N
Text Label 5750 3050 0    50   ~ 0
GPIO7_SPI_CE1_N
Wire Wire Line
	5400 2950 6450 2950
Wire Wire Line
	5400 3050 6450 3050
Text Label 5750 3150 0    50   ~ 0
ID_SC
Text Label 5750 3350 0    50   ~ 0
GPIO12
Text Label 5750 3550 0    50   ~ 0
GPIO16
Text Label 5750 3650 0    50   ~ 0
GPIO20
Text Label 5750 3750 0    50   ~ 0
GPIO21
Wire Wire Line
	5400 2650 6450 2650
Wire Wire Line
	5400 2850 6450 2850
Wire Wire Line
	5400 3150 6450 3150
Wire Wire Line
	5400 3350 6450 3350
Wire Wire Line
	5400 3550 6450 3550
Wire Wire Line
	5400 3650 6450 3650
NoConn ~ 6450 2650
NoConn ~ 6450 2850
NoConn ~ 6450 2950
NoConn ~ 6450 3050
NoConn ~ 6450 3150
NoConn ~ 6450 3350
NoConn ~ 6450 3550
NoConn ~ 6450 3650
NoConn ~ 6450 3750
Wire Wire Line
	5400 3750 6450 3750
$Comp
L Mechanical:MountingHole H1
U 1 1 5C7C4C81
P 8100 2400
F 0 "H1" H 8200 2446 50  0000 L CNN
F 1 "MountingHole" H 8200 2355 50  0000 L CNN
F 2 "lib:MountingHole_2.7mm_M2.5_uHAT_RPi" H 8100 2400 50  0001 C CNN
F 3 "~" H 8100 2400 50  0001 C CNN
	1    8100 2400
	1    0    0    -1  
$EndComp
$Comp
L Mechanical:MountingHole H2
U 1 1 5C7C7FBC
P 8100 2600
F 0 "H2" H 8200 2646 50  0000 L CNN
F 1 "MountingHole" H 8200 2555 50  0000 L CNN
F 2 "lib:MountingHole_2.7mm_M2.5_uHAT_RPi" H 8100 2600 50  0001 C CNN
F 3 "~" H 8100 2600 50  0001 C CNN
	1    8100 2600
	1    0    0    -1  
$EndComp
$Comp
L Mechanical:MountingHole H3
U 1 1 5C7C8014
P 8100 2800
F 0 "H3" H 8200 2846 50  0000 L CNN
F 1 "MountingHole" H 8200 2755 50  0000 L CNN
F 2 "lib:MountingHole_2.7mm_M2.5_uHAT_RPi" H 8100 2800 50  0001 C CNN
F 3 "~" H 8100 2800 50  0001 C CNN
	1    8100 2800
	1    0    0    -1  
$EndComp
$Comp
L Mechanical:MountingHole H4
U 1 1 5C7C8030
P 8100 3000
F 0 "H4" H 8200 3046 50  0000 L CNN
F 1 "MountingHole" H 8200 2955 50  0000 L CNN
F 2 "lib:MountingHole_2.7mm_M2.5_uHAT_RPi" H 8100 3000 50  0001 C CNN
F 3 "~" H 8100 3000 50  0001 C CNN
	1    8100 3000
	1    0    0    -1  
$EndComp
$Sheet
S 7900 4500 1550 750 
U 60B8CF01
F0 "Status LEDs" 50
F1 "StatusLEDs.sch" 50
F2 "GPIO1" I L 7900 4550 50 
F3 "GPIO2" I L 7900 4750 50 
F4 "GPIO3" I L 7900 4950 50 
F5 "GPIO4" I L 7900 5150 50 
$EndSheet
$Sheet
S 5200 4800 1350 600 
U 60B90983
F0 "Voltage Regulator" 50
F1 "VoltageRegulator.sch" 50
F2 "Vin" I R 6550 4850 50 
F3 "Vout_5V" I R 6550 5050 50 
$EndSheet
$Sheet
S 1850 4600 1500 900 
U 60BB44C1
F0 "Voltimeter" 50
F1 "Voltimeter.sch" 50
F2 "Vin_bat" I L 1850 4800 50 
F3 "LED1" O R 3350 4700 50 
F4 "LED2" O R 3350 4900 50 
F5 "LED3" O R 3350 5100 50 
F6 "LED4" O R 3350 5300 50 
$EndSheet
Text GLabel 4700 3900 3    50   Output ~ 0
GRD
Text GLabel 4250 1750 1    50   Output ~ 0
3.3V
Wire Wire Line
	3500 1950 3500 4700
Wire Wire Line
	3500 4700 3350 4700
Wire Wire Line
	3500 1950 4900 1950
Wire Wire Line
	3350 4900 3550 4900
Wire Wire Line
	3550 4900 3550 2050
Wire Wire Line
	3550 2050 4900 2050
Wire Wire Line
	3350 5100 3600 5100
Wire Wire Line
	3600 5100 3600 2150
Wire Wire Line
	3600 2150 4900 2150
Wire Wire Line
	3350 5300 3650 5300
Wire Wire Line
	3650 5300 3650 2350
Wire Wire Line
	3650 2350 4900 2350
Wire Wire Line
	7900 4750 7700 4750
Wire Wire Line
	7900 4950 7600 4950
Wire Wire Line
	7900 5150 7450 5150
Wire Wire Line
	6550 5050 7300 5050
Wire Wire Line
	7300 5050 7300 5500
Wire Wire Line
	7300 5500 9750 5500
Wire Wire Line
	9750 5500 9750 1500
Wire Wire Line
	9750 1500 6050 1500
Wire Wire Line
	6050 1500 6050 1850
$Comp
L power:PWR_FLAG #FLG02
U 1 1 60BD8545
P 4650 1800
F 0 "#FLG02" H 4650 1875 50  0001 C CNN
F 1 "PWR_FLAG" H 4650 1974 50  0000 C CNN
F 2 "" H 4650 1800 50  0001 C CNN
F 3 "~" H 4650 1800 50  0001 C CNN
	1    4650 1800
	1    0    0    -1  
$EndComp
Wire Wire Line
	4650 1800 4650 1850
$Comp
L power:PWR_FLAG #FLG03
U 1 1 60BDC315
P 5700 1800
F 0 "#FLG03" H 5700 1875 50  0001 C CNN
F 1 "PWR_FLAG" H 5700 1974 50  0000 C CNN
F 2 "" H 5700 1800 50  0001 C CNN
F 3 "~" H 5700 1800 50  0001 C CNN
	1    5700 1800
	1    0    0    -1  
$EndComp
Wire Wire Line
	5700 1800 5700 1850
$Comp
L pspice:DIODE D2
U 1 1 60BDF682
P 2250 1700
F 0 "D2" V 2296 1572 50  0000 R CNN
F 1 "DIODE" V 2205 1572 50  0000 R CNN
F 2 "Diode_SMD:D_0201_0603Metric" H 2250 1700 50  0001 C CNN
F 3 "~" H 2250 1700 50  0001 C CNN
	1    2250 1700
	0    -1   -1   0   
$EndComp
$Comp
L Device:R R1
U 1 1 60BE05C7
P 1750 1700
F 0 "R1" H 1820 1746 50  0000 L CNN
F 1 "1000" H 1820 1655 50  0000 L CNN
F 2 "Resistor_SMD:R_0201_0603Metric" V 1680 1700 50  0001 C CNN
F 3 "~" H 1750 1700 50  0001 C CNN
	1    1750 1700
	1    0    0    -1  
$EndComp
Wire Wire Line
	1750 1550 1750 1250
Wire Wire Line
	1750 1250 2250 1250
Wire Wire Line
	2250 1500 2250 1250
Connection ~ 2250 1250
Wire Wire Line
	2250 1250 2850 1250
Wire Wire Line
	2250 1900 2250 2050
Wire Wire Line
	2250 2050 1750 2050
Wire Wire Line
	1750 2050 1750 1850
Connection ~ 2250 2050
$Comp
L pspice:DIODE D1
U 1 1 60BE990E
P 1350 1250
F 0 "D1" H 1350 1515 50  0000 C CNN
F 1 "DIODE" H 1350 1424 50  0000 C CNN
F 2 "Diode_SMD:D_0201_0603Metric" H 1350 1250 50  0001 C CNN
F 3 "~" H 1350 1250 50  0001 C CNN
	1    1350 1250
	1    0    0    -1  
$EndComp
Wire Wire Line
	1550 1250 1750 1250
Connection ~ 1750 1250
Text GLabel 2850 1250 2    50   Output ~ 0
PWR
Text GLabel 6550 4850 2    50   Input ~ 0
PWR
$Comp
L Connector:Conn_01x02_Male J1
U 1 1 60BF036A
P 1000 2700
F 0 "J1" H 1108 2881 50  0000 C CNN
F 1 "Conn_01x02_Male" H 1108 2790 50  0000 C CNN
F 2 "Connector_Molex:Molex_KK-254_AE-6410-02A_1x02_P2.54mm_Vertical" H 1108 2789 50  0001 C CNN
F 3 "~" H 1000 2700 50  0001 C CNN
	1    1000 2700
	1    0    0    -1  
$EndComp
Text Label 950  2700 2    50   ~ 0
powersupply
Text Label 700  2800 0    50   ~ 0
battery
Wire Wire Line
	1200 2800 1450 2800
Wire Wire Line
	2250 2050 2250 2800
Wire Wire Line
	1200 2700 1500 2700
Wire Wire Line
	1500 2700 1500 1650
Wire Wire Line
	1500 1650 800  1650
Wire Wire Line
	800  1650 800  1250
Wire Wire Line
	800  1250 1150 1250
Wire Wire Line
	1450 2800 1450 4800
Wire Wire Line
	1450 4800 1850 4800
Connection ~ 1450 2800
Wire Wire Line
	1450 2800 2250 2800
Text GLabel 4300 4000 3    50   Input ~ 0
GRD
Wire Wire Line
	5400 2050 5600 2050
Wire Wire Line
	5600 2050 5600 2450
Connection ~ 5600 2450
Wire Wire Line
	5400 2450 5600 2450
Wire Wire Line
	5600 2450 5600 2750
Connection ~ 5600 2750
Wire Wire Line
	5400 2750 5600 2750
Wire Wire Line
	5600 2750 5600 3250
Connection ~ 5600 3250
Wire Wire Line
	5400 3250 5600 3250
Wire Wire Line
	5600 3450 5600 3900
Wire Wire Line
	5600 3250 5600 3450
Connection ~ 5600 3450
Wire Wire Line
	5400 3450 5600 3450
Connection ~ 4700 3750
Wire Wire Line
	4900 3750 4700 3750
Wire Wire Line
	4700 3050 4700 3750
Wire Wire Line
	4700 2250 4700 3050
Connection ~ 4700 3050
Wire Wire Line
	4900 3050 4700 3050
Wire Wire Line
	5600 3900 4850 3900
Wire Wire Line
	4850 3900 4850 3850
Wire Wire Line
	4850 3850 4700 3850
Wire Wire Line
	4700 3750 4700 3850
Wire Wire Line
	4700 3850 4700 3900
Connection ~ 4700 3850
$Comp
L Device:LED D9
U 1 1 60C1C653
P 4700 1000
F 0 "D9" H 4693 745 50  0000 C CNN
F 1 "LED" H 4693 836 50  0000 C CNN
F 2 "LED_SMD:LED_0201_0603Metric" H 4700 1000 50  0001 C CNN
F 3 "~" H 4700 1000 50  0001 C CNN
	1    4700 1000
	-1   0    0    1   
$EndComp
Text GLabel 3800 1000 0    50   Input ~ 0
3.3V
Text GLabel 5200 1000 2    50   Input ~ 0
GRD
Wire Wire Line
	4300 1000 4550 1000
Wire Wire Line
	4850 1000 5200 1000
$Comp
L Device:R R15
U 1 1 60C39ABA
P 4150 1000
F 0 "R15" V 3943 1000 50  0000 C CNN
F 1 "100" V 4034 1000 50  0000 C CNN
F 2 "Resistor_SMD:R_0201_0603Metric" V 4080 1000 50  0001 C CNN
F 3 "~" H 4150 1000 50  0001 C CNN
	1    4150 1000
	0    1    1    0   
$EndComp
Wire Wire Line
	4000 1000 3800 1000
Wire Wire Line
	7700 4750 7700 4600
Wire Wire Line
	7900 4550 3950 4550
Wire Wire Line
	3950 4550 3950 3650
Wire Wire Line
	4900 3650 3950 3650
Wire Wire Line
	7700 4600 3900 4600
Wire Wire Line
	3900 4600 3900 3550
Wire Wire Line
	3900 3550 4900 3550
Wire Wire Line
	7600 4950 7600 4650
Wire Wire Line
	7600 4650 3850 4650
Wire Wire Line
	3850 4650 3850 3450
Wire Wire Line
	7450 5150 7450 4700
Wire Wire Line
	7450 4700 3800 4700
Wire Wire Line
	3800 4700 3800 3350
Wire Wire Line
	3800 3350 4900 3350
NoConn ~ 5750 2150
NoConn ~ 5750 2250
NoConn ~ 5750 2350
NoConn ~ 5750 2550
Wire Wire Line
	5400 2150 5750 2150
Wire Wire Line
	5400 2250 5750 2250
Wire Wire Line
	5400 2350 5750 2350
Wire Wire Line
	5400 2550 5750 2550
NoConn ~ 4650 2650
$EndSCHEMATC
