EESchema Schematic File Version 4
EELAYER 30 0
EELAYER END
$Descr A4 11693 8268
encoding utf-8
Sheet 2 4
Title ""
Date ""
Rev ""
Comp ""
Comment1 ""
Comment2 ""
Comment3 ""
Comment4 ""
$EndDescr
$Comp
L Device:LED D3
U 1 1 60B8D26B
P 4450 3600
F 0 "D3" H 4443 3345 50  0000 C CNN
F 1 "LED" H 4443 3436 50  0000 C CNN
F 2 "LED_SMD:LED_0201_0603Metric" H 4450 3600 50  0001 C CNN
F 3 "~" H 4450 3600 50  0001 C CNN
	1    4450 3600
	-1   0    0    1   
$EndComp
$Comp
L Device:LED D4
U 1 1 60B8E829
P 4450 4400
F 0 "D4" H 4443 4145 50  0000 C CNN
F 1 "LED" H 4443 4236 50  0000 C CNN
F 2 "LED_SMD:LED_0201_0603Metric" H 4450 4400 50  0001 C CNN
F 3 "~" H 4450 4400 50  0001 C CNN
	1    4450 4400
	-1   0    0    1   
$EndComp
$Comp
L Device:LED D5
U 1 1 60B8ED2E
P 4450 5050
F 0 "D5" H 4443 4795 50  0000 C CNN
F 1 "LED" H 4443 4886 50  0000 C CNN
F 2 "LED_SMD:LED_0201_0603Metric" H 4450 5050 50  0001 C CNN
F 3 "~" H 4450 5050 50  0001 C CNN
	1    4450 5050
	-1   0    0    1   
$EndComp
$Comp
L Device:LED D6
U 1 1 60B8F046
P 4450 5650
F 0 "D6" H 4443 5395 50  0000 C CNN
F 1 "LED" H 4443 5486 50  0000 C CNN
F 2 "LED_SMD:LED_0201_0603Metric" H 4450 5650 50  0001 C CNN
F 3 "~" H 4450 5650 50  0001 C CNN
	1    4450 5650
	-1   0    0    1   
$EndComp
Text HLabel 3750 3600 0    50   Input ~ 0
GPIO1
Text HLabel 3750 4400 0    50   Input ~ 0
GPIO2
Text HLabel 3750 5050 0    50   Input ~ 0
GPIO3
Text HLabel 3750 5650 0    50   Input ~ 0
GPIO4
Wire Wire Line
	3750 5650 3900 5650
Wire Wire Line
	3750 5050 3900 5050
Wire Wire Line
	3750 4400 3900 4400
Wire Wire Line
	3750 3600 3900 3600
Text GLabel 5350 3600 2    50   Input ~ 0
GRD
Text GLabel 5350 4400 2    50   Input ~ 0
GRD
Text GLabel 5350 5050 2    50   Input ~ 0
GRD
Wire Wire Line
	4600 3600 5350 3600
Wire Wire Line
	4600 4400 5350 4400
Wire Wire Line
	4600 5050 5350 5050
$Comp
L Device:R R5
U 1 1 60B919FD
P 4050 5650
F 0 "R5" V 3843 5650 50  0000 C CNN
F 1 "100" V 3934 5650 50  0000 C CNN
F 2 "Resistor_SMD:R_0201_0603Metric" V 3980 5650 50  0001 C CNN
F 3 "~" H 4050 5650 50  0001 C CNN
	1    4050 5650
	0    1    1    0   
$EndComp
Wire Wire Line
	4200 5650 4300 5650
$Comp
L Device:R R4
U 1 1 60B91E0C
P 4050 5050
F 0 "R4" V 3843 5050 50  0000 C CNN
F 1 "100" V 3934 5050 50  0000 C CNN
F 2 "Resistor_SMD:R_0201_0603Metric" V 3980 5050 50  0001 C CNN
F 3 "~" H 4050 5050 50  0001 C CNN
	1    4050 5050
	0    1    1    0   
$EndComp
Wire Wire Line
	4200 5050 4300 5050
$Comp
L Device:R R3
U 1 1 60B92185
P 4050 4400
F 0 "R3" V 3843 4400 50  0000 C CNN
F 1 "100" V 3934 4400 50  0000 C CNN
F 2 "Resistor_SMD:R_0201_0603Metric" V 3980 4400 50  0001 C CNN
F 3 "~" H 4050 4400 50  0001 C CNN
	1    4050 4400
	0    1    1    0   
$EndComp
Wire Wire Line
	4200 4400 4300 4400
$Comp
L Device:R R2
U 1 1 60B924FA
P 4050 3600
F 0 "R2" V 3843 3600 50  0000 C CNN
F 1 "100" V 3934 3600 50  0000 C CNN
F 2 "Resistor_SMD:R_0201_0603Metric" V 3980 3600 50  0001 C CNN
F 3 "~" H 4050 3600 50  0001 C CNN
	1    4050 3600
	0    1    1    0   
$EndComp
Wire Wire Line
	4200 3600 4300 3600
Text GLabel 5350 5650 2    50   Input ~ 0
GRD
Wire Wire Line
	4600 5650 5350 5650
$EndSCHEMATC
