PCBNEW-LibModule-V1  2021-06-04 02:03:56
# encoding utf-8
Units mm
$INDEX
SOD2512X110N
$EndINDEX
$MODULE SOD2512X110N
Po 0 0 0 15 60b97bfc 00000000 ~~
Li SOD2512X110N
Cd SOD-323
Kw Diode
Sc 0
At SMD
AR 
Op 0 0 0
T0 0 0 1.27 1.27 0 0.254 N V 21 N "D**"
T1 0 0 1.27 1.27 0 0.254 N I 21 N "SOD2512X110N"
DS -1.925 -1.15 1.925 -1.15 0.05 24
DS 1.925 -1.15 1.925 1.15 0.05 24
DS 1.925 1.15 -1.925 1.15 0.05 24
DS -1.925 1.15 -1.925 -1.15 0.05 24
DS -0.85 -0.625 0.85 -0.625 0.1 24
DS 0.85 -0.625 0.85 0.625 0.1 24
DS 0.85 0.625 -0.85 0.625 0.1 24
DS -0.85 0.625 -0.85 -0.625 0.1 24
DS -0.85 -0.1 -0.325 -0.625 0.1 24
DS -1.675 -0.625 0.85 -0.625 0.2 21
DS -0.85 0.625 0.85 0.625 0.2 21
$PAD
Po -1.15 0
Sh "1" R 0.55 1.05 0 0 900
At SMD N 00888000
Ne 0 ""
$EndPAD
$PAD
Po 1.15 0
Sh "2" R 0.55 1.05 0 0 900
At SMD N 00888000
Ne 0 ""
$EndPAD
$EndMODULE SOD2512X110N
$EndLIBRARY
