(module "SOD2512X110N" (layer F.Cu)
  (descr "SOD-323")
  (tags "Diode")
  (attr smd)
  (fp_text reference D** (at 0 0) (layer F.SilkS)
    (effects (font (size 1.27 1.27) (thickness 0.254)))
  )
  (fp_text user %R (at 0 0) (layer F.Fab)
    (effects (font (size 1.27 1.27) (thickness 0.254)))
  )
  (fp_text value "SOD2512X110N" (at 0 0) (layer F.SilkS) hide
    (effects (font (size 1.27 1.27) (thickness 0.254)))
  )
  (fp_line (start -1.925 -1.15) (end 1.925 -1.15) (layer F.CrtYd) (width 0.05))
  (fp_line (start 1.925 -1.15) (end 1.925 1.15) (layer F.CrtYd) (width 0.05))
  (fp_line (start 1.925 1.15) (end -1.925 1.15) (layer F.CrtYd) (width 0.05))
  (fp_line (start -1.925 1.15) (end -1.925 -1.15) (layer F.CrtYd) (width 0.05))
  (fp_line (start -0.85 -0.625) (end 0.85 -0.625) (layer F.Fab) (width 0.1))
  (fp_line (start 0.85 -0.625) (end 0.85 0.625) (layer F.Fab) (width 0.1))
  (fp_line (start 0.85 0.625) (end -0.85 0.625) (layer F.Fab) (width 0.1))
  (fp_line (start -0.85 0.625) (end -0.85 -0.625) (layer F.Fab) (width 0.1))
  (fp_line (start -0.85 -0.1) (end -0.325 -0.625) (layer F.Fab) (width 0.1))
  (fp_line (start -1.675 -0.625) (end 0.85 -0.625) (layer F.SilkS) (width 0.2))
  (fp_line (start -0.85 0.625) (end 0.85 0.625) (layer F.SilkS) (width 0.2))
  (pad 1 smd rect (at -1.15 0 90) (size 0.55 1.05) (layers F.Cu F.Paste F.Mask))
  (pad 2 smd rect (at 1.15 0 90) (size 0.55 1.05) (layers F.Cu F.Paste F.Mask))
  (model CMDSH2-3_TR.stp
    (at (xyz 0 0 0))
    (scale (xyz 1 1 1))
    (rotate (xyz 0 0 0))
  )
)
