Version 4
SHEET 1 932 680
WIRE 0 32 -80 32
WIRE 160 32 64 32
WIRE 288 32 160 32
WIRE 416 32 288 32
WIRE 160 48 160 32
WIRE 288 64 288 32
WIRE -80 160 -80 32
WIRE 160 160 160 128
WIRE 288 160 288 128
WIRE 288 160 160 160
WIRE 160 192 160 160
WIRE -80 336 -80 240
WIRE 160 336 160 272
WIRE 160 336 -80 336
WIRE 416 336 160 336
FLAG -80 32 PowerSupplyConnector
IOPIN -80 32 In
FLAG 416 336 0
FLAG 416 32 Vout
SYMBOL diode 0 48 R270
WINDOW 0 32 32 VTop 2
WINDOW 3 0 32 VBottom 2
SYMATTR InstName D1
SYMATTR Value 1N914
SYMBOL res 144 32 R0
SYMATTR InstName R1
SYMATTR Value 1k
SYMBOL Misc\\battery 160 176 R0
WINDOW 123 0 0 Left 0
WINDOW 39 0 0 Left 0
SYMATTR InstName BatteryPack
SYMATTR Value 10
SYMBOL voltage -80 144 R0
WINDOW 123 0 0 Left 0
WINDOW 39 0 0 Left 0
SYMATTR InstName V2
SYMATTR Value 15V
SYMBOL diode 304 128 R180
WINDOW 0 24 64 Left 2
WINDOW 3 24 0 Left 2
SYMATTR InstName D2
SYMATTR Value 1N914
TEXT 480 32 Left 2 ;To voltage regulator then Raspberry pi
TEXT -488 72 Left 2 ;From mains before electricity is lost
TEXT -490 360 Left 2 !.tran 1
