Version 4
SHEET 1 880 952
WIRE -608 -144 -608 -224
WIRE -112 -144 -608 -144
WIRE -608 -64 -608 -144
WIRE -112 -64 -112 -144
WIRE 368 -16 256 -16
WIRE 368 0 368 -16
WIRE 256 48 256 -16
WIRE -112 64 -112 16
WIRE 224 64 -112 64
WIRE -608 80 -608 16
WIRE -384 80 -608 80
WIRE 448 80 288 80
WIRE -384 96 -384 80
WIRE 224 96 -384 96
WIRE -384 112 -384 96
WIRE 368 192 256 192
WIRE 368 208 368 192
WIRE -384 224 -384 192
WIRE -256 224 -384 224
WIRE 256 224 256 192
WIRE -112 240 -112 64
WIRE 224 240 -112 240
WIRE 448 256 288 256
WIRE -384 272 -384 224
WIRE -256 272 -256 224
WIRE 224 272 -256 272
WIRE -608 352 -608 80
WIRE 368 368 256 368
WIRE -384 384 -384 352
WIRE -256 384 -384 384
WIRE 256 400 256 368
WIRE 368 400 368 368
WIRE -112 416 -112 240
WIRE 224 416 -112 416
WIRE -384 432 -384 384
WIRE 448 432 288 432
WIRE -256 448 -256 384
WIRE 224 448 -256 448
WIRE 368 544 256 544
WIRE -384 560 -384 512
WIRE -272 560 -384 560
WIRE 256 560 256 544
WIRE 368 560 368 544
WIRE -112 576 -112 416
WIRE 224 576 -112 576
WIRE -384 592 -384 560
WIRE 448 592 288 592
WIRE -272 608 -272 560
WIRE 224 608 -272 608
WIRE -112 672 -112 576
WIRE -608 688 -608 416
WIRE -384 688 -384 672
WIRE -384 688 -608 688
WIRE -384 720 -384 688
WIRE -112 832 -112 752
WIRE -960 912 -960 864
WIRE -768 912 -768 864
FLAG -384 720 0
FLAG -112 832 0
FLAG -960 912 0
FLAG -768 912 0
FLAG -768 784 3.3V
IOPIN -768 784 Out
FLAG 256 112 3.3V
IOPIN 256 112 In
FLAG 256 288 3.3V
IOPIN 256 288 In
FLAG 256 464 3.3V
IOPIN 256 464 In
FLAG 256 624 3.3V
IOPIN 256 624 In
FLAG -608 -224 Vin
IOPIN -608 -224 In
FLAG -960 784 Vin
IOPIN -960 784 Out
FLAG 368 0 0
FLAG 368 208 0
FLAG 368 400 0
FLAG 368 560 0
FLAG 448 80 V1
IOPIN 448 80 Out
FLAG 448 256 V2
IOPIN 448 256 Out
FLAG 448 432 V3
IOPIN 448 432 Out
FLAG 448 592 V4
IOPIN 448 592 Out
SYMBOL Opamps\\UniversalOpamp2 256 592 M180
SYMATTR InstName U1
SYMBOL Opamps\\UniversalOpamp2 256 432 M180
SYMATTR InstName U2
SYMBOL Opamps\\UniversalOpamp2 256 256 M180
SYMATTR InstName U3
SYMBOL Opamps\\UniversalOpamp2 256 80 M180
SYMATTR InstName U4
SYMBOL res -400 96 R0
SYMATTR InstName R1
SYMATTR Value 1k
SYMBOL res -400 256 R0
SYMATTR InstName R2
SYMATTR Value 1k
SYMBOL res -400 416 R0
SYMATTR InstName R3
SYMATTR Value 1k
SYMBOL res -400 576 R0
SYMATTR InstName R4
SYMATTR Value 1k
SYMBOL voltage -960 768 R0
WINDOW 123 0 0 Left 0
WINDOW 39 0 0 Left 0
SYMATTR InstName V1
SYMATTR Value 21
SYMBOL voltage -768 768 R0
WINDOW 123 0 0 Left 0
WINDOW 39 0 0 Left 0
SYMATTR InstName V2
SYMATTR Value 3.3
SYMBOL res -128 -80 R0
SYMATTR InstName R5
SYMATTR Value 3k
SYMBOL res -128 656 R0
SYMATTR InstName R6
SYMATTR Value 1k
SYMBOL res -624 -80 R0
SYMATTR InstName R7
SYMATTR Value 2.6k
SYMBOL zener -592 416 R180
WINDOW 0 24 64 Left 2
WINDOW 3 24 0 Left 2
SYMATTR InstName D1
SYMATTR Value MYD
TEXT -1032 936 Left 2 !.tran 0 10 0 0.01
TEXT -1048 336 Left 2 !.model MYD AKO: BZX84C6V2L BV=5.1
